<?xml version="1.0" encoding="utf-8"?>
<!-- Generator: Adobe Illustrator 14.0.0, SVG Export Plug-In . SVG Version: 6.00 Build 43363)  -->
<!DOCTYPE svg PUBLIC "-//W3C//DTD SVG 1.1//EN" "http://www.w3.org/Graphics/SVG/1.1/DTD/svg11.dtd">
<svg version="1.1" id="Layer_1" xmlns="http://www.w3.org/2000/svg" xmlns:xlink="http://www.w3.org/1999/xlink" x="0px" y="0px"
	 width="24px" height="24px" viewBox="0 0 24 24" enable-background="new 0 0 24 24" xml:space="preserve">
<path fill="#FF9800" d="M19.2,18H4.8v-2.4h14.4V18z M19.2,13.2H4.8v-2.4h14.4V13.2z M19.2,8.4H4.8V6h14.4V8.4z M1.2,24L3,22.2
	L4.8,24l1.8-1.8L8.4,24l1.8-1.8L12,24l1.801-1.8L15.6,24l1.801-1.8l1.8,1.8l1.8-1.8l1.801,1.8V0L21,1.8L19.2,0l-1.8,1.8L15.6,0
	l-1.799,1.8L12,0l-1.8,1.8L8.4,0L6.6,1.8L4.8,0L3,1.8L1.2,0V24z"/>
</svg>
