<?xml version="1.0" encoding="utf-8"?>
<!-- Generator: Adobe Illustrator 14.0.0, SVG Export Plug-In . SVG Version: 6.00 Build 43363)  -->
<!DOCTYPE svg PUBLIC "-//W3C//DTD SVG 1.1//EN" "http://www.w3.org/Graphics/SVG/1.1/DTD/svg11.dtd">
<svg version="1.1" id="Layer_1" xmlns="http://www.w3.org/2000/svg" xmlns:xlink="http://www.w3.org/1999/xlink" x="0px" y="0px"
	 width="24px" height="24px" viewBox="0 0 24 24" enable-background="new 0 0 24 24" xml:space="preserve">
<g>
	<path fill="#4CAF50" d="M16.522,7.103c-0.289,0.321-0.246,0.842,0.083,1.124l3.443,2.971H8.756c-0.452,0-0.826,0.363-0.826,0.803
		c0,0.441,0.374,0.804,0.826,0.804h11.293l-3.443,2.972c-0.329,0.32-0.372,0.803-0.083,1.124c0.329,0.32,0.825,0.362,1.155,0.08
		l5.033-4.376c0.416-0.329,0.353-0.908,0-1.167l-5.033-4.415C17.352,6.74,16.813,6.778,16.522,7.103"/>
	<path fill="#4CAF50" d="M4.7,0.001h8.066C12.768,0.001,12.769,0,12.771,0h1.772c0.679,0,1.234,0.54,1.234,1.2
		c0,0.66-0.556,1.2-1.234,1.2h-0.594v0.001H4.7c-0.68,0-1.233,0.538-1.233,1.2V20.4c0,0.662,0.553,1.199,1.233,1.199h9.249h0.605
		c0.678,0,1.232,0.541,1.232,1.2c0,0.66-0.555,1.2-1.232,1.2h-1.773l0,0H4.7C2.66,24,1,22.385,1,20.4V3.601
		C1,1.616,2.66,0.001,4.7,0.001"/>
</g>
</svg>
