<?xml version="1.0" encoding="utf-8"?>
<!-- Generator: Adobe Illustrator 14.0.0, SVG Export Plug-In . SVG Version: 6.00 Build 43363)  -->
<!DOCTYPE svg PUBLIC "-//W3C//DTD SVG 1.1//EN" "http://www.w3.org/Graphics/SVG/1.1/DTD/svg11.dtd">
<svg version="1.1" id="Layer_1" xmlns="http://www.w3.org/2000/svg" xmlns:xlink="http://www.w3.org/1999/xlink" x="0px" y="0px"
	 width="24px" height="24px" viewBox="0 0 24 24" enable-background="new 0 0 24 24" xml:space="preserve">
<path fill="#2196F3" d="M12,12.333c1.652,0,3-1.347,3-3s-1.348-3-3-3c-1.653,0-3,1.347-3,3S10.347,12.333,12,12.333 M18,17.666
	c0-2-4-3-6-3s-6,1-6,3v1h12V17.666z M21.333,0H2.667C1.2,0,0,1.2,0,2.666v18.667C0,22.8,1.2,24,2.667,24h18.666
	C22.8,24,24,22.8,24,21.333V2.666C24,1.2,22.8,0,21.333,0 M21.333,21.333H2.666V2.666h18.667V21.333z"/>
</svg>
